<svg width="24" height="24" viewBox="0 0 24 24" fill="none" xmlns="http://www.w3.org/2000/svg">
<path fill-rule="evenodd" clip-rule="evenodd" d="M6.31188 4H13.9203C14.7024 4 15.4314 4.38783 15.858 5.03078L19.6258 10.7098C20.1215 11.4568 20.125 12.4194 19.6348 13.17L15.8562 18.9556C15.4312 19.6064 14.6975 20 13.9095 20H6.31188C5.03506 20 4 18.9847 4 17.7323V6.26772C4 5.01529 5.03506 4 6.31188 4Z" fill="#FF3333"/>
<path d="M10.2613 17.3575V13.1862C10.2613 13.1862 11.1655 12.5824 11.931 11.7223C12.994 10.528 14.0178 9.12358 14.0178 10.6928C14.0178 13.392 10.2613 17.3575 10.2613 17.3575Z" fill="#EAEAEA"/>
<path fill-rule="evenodd" clip-rule="evenodd" d="M10.6788 14.0182C12.5231 14.0182 14.0182 12.5231 14.0182 10.6788C14.0182 8.83448 12.5231 7.33939 10.6788 7.33939C8.83448 7.33939 7.33938 8.83448 7.33938 10.6788C7.33938 12.5231 8.83448 14.0182 10.6788 14.0182ZM10.6977 12.0449C11.4417 12.0449 12.0449 11.4417 12.0449 10.6977C12.0449 9.95374 11.4417 9.35061 10.6977 9.35061C9.95374 9.35061 9.3506 9.95374 9.3506 10.6977C9.3506 11.4417 9.95374 12.0449 10.6977 12.0449Z" fill="white"/>
</svg>
