<svg width="48" height="12" viewBox="0 0 48 12" fill="none" xmlns="http://www.w3.org/2000/svg">
<path d="M30.9865 4.00391C28.7698 1.59095 27.1739 0 24.0047 0C20.8474 0 19.1782 1.6015 16.9979 3.99391C13.8863 7.40812 7.99416 12 -0.000244141 12H48.0003C39.9891 12 34.11 7.40404 30.9865 4.00391Z" fill="#381D4B"/>
</svg>
